[
  {
    "telemetry_timestamp": 1634198007,
    "satellite_id": 1,
    "barrels": [
      {
        "barrel_id": 1,
        "last_flavor_sensor_result": "woody",
        "status": "aging",
        "errors": []
      },
      {
        "barrel_id": 2,
        "last_flavor_sensor_result": "error",
        "status": "error",
        "errors": [
          "RUD - barrel has exploded"
        ]
      },
      {
        "barrel_id": 3,
        "last_flavor_sensor_result": "spicy with a hint of radiation",
        "status": "ready",
        "errors": []
      }
    ]
  },
  {
    "telemetry_timestamp": 1543198007,
    "satellite_id": 2,
    "barrels": [
      {
        "barrel_id": 4,
        "last_flavor_sensor_result": "rosey",
        "status": "ready",
        "errors": []
      },
      {
        "barrel_id": 5,
        "last_flavor_sensor_result": "woody",
        "status": "aging",
        "errors": []
      },
      {
        "barrel_id": 6,
        "last_flavor_sensor_result": "spicy with a hint of radiation",
        "status": "ready",
        "errors": []
      }
    ]
  },
  {
    "telemetry_timestamp": 1546198007,
    "satellite_id": 3,
    "barrels": [
      {
        "barrel_id": 7,
        "last_flavor_sensor_result": "woody",
        "status": "aging",
        "errors": []
      },
      {
        "barrel_id": 8,
        "last_flavor_sensor_result": "error",
        "status": "error",
        "errors": [
          "RUD - barrel has exploded"
        ]
      },
      {
        "barrel_id": 9,
        "last_flavor_sensor_result": "spicy with a hint of radiation",
        "status": "ready",
        "errors": []
      }
    ]
  }
]
